Analýza herních dat NBA sezóny 2023/24
…
# Spojení s výhrami
nba_prehled <- info_tymy %>%
  left_join(nba_vitezstvi, by = c("tym_id" = "vitez_id")) %>%
  mutate(vitezstvi = replace_na(vitezstvi, 0)) %>%
  select(tym_id, tym, divize, konference, vitezstvi) %>%
  arrange(divize, desc(vitezstvi))  # Seřazení podle divize a výher

# Spočítání procent výher v rámci divize
nba_prehled_procent <- nba_prehled %>%
  group_by(divize) %>%
  mutate(podil = vitezstvi / sum(vitezstvi)) %>%
  ungroup()
nba_prehled_procent

## # A tibble: 30 × 6
##    tym_id tym   divize     konference vitezstvi  podil
##     <int> <chr> <chr>      <chr>          <int>  <dbl>
##  1      1 BOS   Atlantická EAST              64 0.294 
##  2      3 NYK   Atlantická EAST              50 0.229 
##  3      4 PHI   Atlantická EAST              47 0.216 
##  4      2 BKN   Atlantická EAST              32 0.147 
##  5      5 TOR   Atlantická EAST              25 0.115 
##  6     10 MIL   Centrální  EAST              49 0.249 
##  7      7 CLE   Centrální  EAST              48 0.244 
##  8      9 IND   Centrální  EAST              47 0.239 
##  9      6 CHI   Centrální  EAST              39 0.198 
## 10      8 DET   Centrální  EAST              14 0.0711
## # ℹ 20 more rows
…
